power lifeters data_set
…
# A == SI

# do we have repetetive names.?
ipf_lifts %>% 
  count(name, sort = T) 

## # A tibble: 17,803 x 2
##    name                      n
##    <chr>                 <int>
##  1 Hiroyuki Isagawa         54
##  2 Dariusz Wszoa           52
##  3 Ielja Strik              50
##  4 Jan Wegiera              47
##  5 Tsung-Ting Hsieh         42
##  6 Hana Takov            40
##  7 Hideaki Inaba            39
##  8 Brenda van der Meulen    36
##  9 Chen-Yeh Chao            35
## 10 Vuokko Viitasaari        34
## #  with 17,793 more rows
…
